{
  "compilerOptions": {
    "moduleResolution": "node",
    "baseUrl": ".",
    "module": "es2022",
    "target": "es2022",
    "lib": [
      "es2022"
    ],
    "checkJs": true
  },
  "exclude": []
}